^C:\USERS\ALEXA\SOURCE\REPOS\DPCPPCONSOLEAPPLICATION1\DPCPPCONSOLEAPPLICATION1\DPCPPCONSOLEAPPLICATION1.CPP
C:\PROGRA~2\INTEL\ONEAPI\COMPILER\20212~1.0\WINDOWS\BIN\CLANG-CL.EXE
C:\WINDOWS\GLOBALIZATION\SORTING\SORTDEFAULT.NLS
C:\PROGRA~2\INTEL\ONEAPI\COMPILER\20212~1.0\WINDOWS\INCLUDE\SYCL\CL\SYCL\DETAIL\DEFINES_ELEMENTARY.HPP
C:\PROGRA~2\INTEL\ONEAPI\COMPILER\20212~1.0\WINDOWS\INCLUDE\SYCL\CL\SYCL\DETAIL\KERNEL_DESC.HPP
C:\PROGRA~2\INTEL\ONEAPI\COMPILER\20212~1.0\WINDOWS\INCLUDE\SYCL\CL\SYCL\DETAIL\EXPORT.HPP
C:\PROGRA~2\INTEL\ONEAPI\COMPILER\20212~1.0\WINDOWS\INCLUDE\SYCL\CL\SYCL.HPP
C:\PROGRA~2\INTEL\ONEAPI\COMPILER\20212~1.0\WINDOWS\INCLUDE\SYCL\CL\SYCL\ONEAPI\ATOMIC.HPP
C:\PROGRA~2\INTEL\ONEAPI\COMPILER\20212~1.0\WINDOWS\INCLUDE\SYCL\CL\SYCL\ONEAPI\ATOMIC_ACCESSOR.HPP
C:\PROGRA~2\INTEL\ONEAPI\COMPILER\20212~1.0\WINDOWS\INCLUDE\SYCL\CL\SYCL\ONEAPI\ATOMIC_ENUMS.HPP
C:\PROGRA~2\INTEL\ONEAPI\COMPILER\20212~1.0\WINDOWS\INCLUDE\SYCL\CL\__SPIRV\SPIRV_OPS.HPP
C:\PROGRA~2\INTEL\ONEAPI\COMPILER\20212~1.0\WINDOWS\INCLUDE\SYCL\CL\__SPIRV\SPIRV_TYPES.HPP
C:\PROGRAM FILES (X86)\MICROSOFT VISUAL STUDIO\2019\COMMUNITY\VC\TOOLS\MSVC\14.28.29910\INCLUDE\CSTDINT
C:\PROGRAM FILES (X86)\MICROSOFT VISUAL STUDIO\2019\COMMUNITY\VC\TOOLS\MSVC\14.28.29910\INCLUDE\YVALS_CORE.H
C:\PROGRAM FILES (X86)\MICROSOFT VISUAL STUDIO\2019\COMMUNITY\VC\TOOLS\MSVC\14.28.29910\INCLUDE\VCRUNTIME.H
C:\PROGRAM FILES (X86)\MICROSOFT VISUAL STUDIO\2019\COMMUNITY\VC\TOOLS\MSVC\14.28.29910\INCLUDE\SAL.H
C:\PROGRAM FILES (X86)\MICROSOFT VISUAL STUDIO\2019\COMMUNITY\VC\TOOLS\MSVC\14.28.29910\INCLUDE\CONCURRENCYSAL.H
C:\PROGRA~2\INTEL\ONEAPI\COMPILER\20212~1.0\WINDOWS\LIB\CLANG\12.0.0\INCLUDE\VADEFS.H
C:\PROGRAM FILES (X86)\MICROSOFT VISUAL STUDIO\2019\COMMUNITY\VC\TOOLS\MSVC\14.28.29910\INCLUDE\VADEFS.H
C:\PROGRAM FILES (X86)\MICROSOFT VISUAL STUDIO\2019\COMMUNITY\VC\TOOLS\MSVC\14.28.29910\INCLUDE\XKEYCHECK.H
C:\PROGRA~2\INTEL\ONEAPI\COMPILER\20212~1.0\WINDOWS\LIB\CLANG\12.0.0\INCLUDE\STDINT.H
C:\PROGRAM FILES (X86)\MICROSOFT VISUAL STUDIO\2019\COMMUNITY\VC\TOOLS\MSVC\14.28.29910\INCLUDE\STDINT.H
C:\PROGRA~2\INTEL\ONEAPI\COMPILER\20212~1.0\WINDOWS\INCLUDE\SYCL\CL\SYCL\DETAIL\DEFINES.HPP
C:\PROGRAM FILES (X86)\MICROSOFT VISUAL STUDIO\2019\COMMUNITY\VC\TOOLS\MSVC\14.28.29910\INCLUDE\CLIMITS
C:\PROGRA~2\INTEL\ONEAPI\COMPILER\20212~1.0\WINDOWS\LIB\CLANG\12.0.0\INCLUDE\LIMITS.H
C:\PROGRAM FILES (X86)\MICROSOFT VISUAL STUDIO\2019\COMMUNITY\VC\TOOLS\MSVC\14.28.29910\INCLUDE\LIMITS.H
C:\PROGRA~2\INTEL\ONEAPI\COMPILER\20212~1.0\WINDOWS\INCLUDE\SYCL\CL\SYCL\DETAIL\STL_TYPE_TRAITS.HPP
C:\PROGRAM FILES (X86)\MICROSOFT VISUAL STUDIO\2019\COMMUNITY\VC\TOOLS\MSVC\14.28.29910\INCLUDE\ITERATOR
C:\PROGRAM FILES (X86)\MICROSOFT VISUAL STUDIO\2019\COMMUNITY\VC\TOOLS\MSVC\14.28.29910\INCLUDE\IOSFWD
C:\PROGRAM FILES (X86)\MICROSOFT VISUAL STUDIO\2019\COMMUNITY\VC\TOOLS\MSVC\14.28.29910\INCLUDE\YVALS.H
C:\PROGRAM FILES (X86)\WINDOWS KITS\10\INCLUDE\10.0.19041.0\UCRT\CRTDBG.H
C:\PROGRAM FILES (X86)\WINDOWS KITS\10\INCLUDE\10.0.19041.0\UCRT\CORECRT.H
C:\PROGRAM FILES (X86)\MICROSOFT VISUAL STUDIO\2019\COMMUNITY\VC\TOOLS\MSVC\14.28.29910\INCLUDE\VCRUNTIME_NEW_DEBUG.H
C:\PROGRAM FILES (X86)\MICROSOFT VISUAL STUDIO\2019\COMMUNITY\VC\TOOLS\MSVC\14.28.29910\INCLUDE\VCRUNTIME_NEW.H
C:\PROGRAM FILES (X86)\MICROSOFT VISUAL STUDIO\2019\COMMUNITY\VC\TOOLS\MSVC\14.28.29910\INCLUDE\CRTDEFS.H
C:\PROGRAM FILES (X86)\MICROSOFT VISUAL STUDIO\2019\COMMUNITY\VC\TOOLS\MSVC\14.28.29910\INCLUDE\USE_ANSI.H
C:\PROGRAM FILES (X86)\MICROSOFT VISUAL STUDIO\2019\COMMUNITY\VC\TOOLS\MSVC\14.28.29910\INCLUDE\CSTDIO
C:\PROGRAM FILES (X86)\WINDOWS KITS\10\INCLUDE\10.0.19041.0\UCRT\STDIO.H
C:\PROGRAM FILES (X86)\WINDOWS KITS\10\INCLUDE\10.0.19041.0\UCRT\CORECRT_WSTDIO.H
C:\PROGRAM FILES (X86)\WINDOWS KITS\10\INCLUDE\10.0.19041.0\UCRT\CORECRT_STDIO_CONFIG.H
C:\PROGRAM FILES (X86)\MICROSOFT VISUAL STUDIO\2019\COMMUNITY\VC\TOOLS\MSVC\14.28.29910\INCLUDE\CSTRING
C:\PROGRAM FILES (X86)\WINDOWS KITS\10\INCLUDE\10.0.19041.0\UCRT\STRING.H
C:\PROGRAM FILES (X86)\WINDOWS KITS\10\INCLUDE\10.0.19041.0\UCRT\CORECRT_MEMORY.H
C:\PROGRAM FILES (X86)\WINDOWS KITS\10\INCLUDE\10.0.19041.0\UCRT\CORECRT_MEMCPY_S.H
C:\PROGRAM FILES (X86)\WINDOWS KITS\10\INCLUDE\10.0.19041.0\UCRT\ERRNO.H
C:\PROGRAM FILES (X86)\MICROSOFT VISUAL STUDIO\2019\COMMUNITY\VC\TOOLS\MSVC\14.28.29910\INCLUDE\VCRUNTIME_STRING.H
C:\PROGRAM FILES (X86)\WINDOWS KITS\10\INCLUDE\10.0.19041.0\UCRT\CORECRT_WSTRING.H
C:\PROGRAM FILES (X86)\MICROSOFT VISUAL STUDIO\2019\COMMUNITY\VC\TOOLS\MSVC\14.28.29910\INCLUDE\CWCHAR
C:\PROGRAM FILES (X86)\WINDOWS KITS\10\INCLUDE\10.0.19041.0\UCRT\WCHAR.H
C:\PROGRAM FILES (X86)\WINDOWS KITS\10\INCLUDE\10.0.19041.0\UCRT\CORECRT_WCONIO.H
C:\PROGRAM FILES (X86)\WINDOWS KITS\10\INCLUDE\10.0.19041.0\UCRT\CORECRT_WCTYPE.H
C:\PROGRAM FILES (X86)\WINDOWS KITS\10\INCLUDE\10.0.19041.0\UCRT\CORECRT_WDIRECT.H
C:\PROGRAM FILES (X86)\WINDOWS KITS\10\INCLUDE\10.0.19041.0\UCRT\CORECRT_WIO.H
C:\PROGRAM FILES (X86)\WINDOWS KITS\10\INCLUDE\10.0.19041.0\UCRT\CORECRT_SHARE.H
C:\PROGRAM FILES (X86)\WINDOWS KITS\10\INCLUDE\10.0.19041.0\UCRT\CORECRT_WPROCESS.H
C:\PROGRAM FILES (X86)\WINDOWS KITS\10\INCLUDE\10.0.19041.0\UCRT\CORECRT_WSTDLIB.H
C:\PROGRAM FILES (X86)\WINDOWS KITS\10\INCLUDE\10.0.19041.0\UCRT\CORECRT_WTIME.H
C:\PROGRAM FILES (X86)\WINDOWS KITS\10\INCLUDE\10.0.19041.0\UCRT\SYS\STAT.H
C:\PROGRAM FILES (X86)\WINDOWS KITS\10\INCLUDE\10.0.19041.0\UCRT\SYS\TYPES.H
C:\PROGRAM FILES (X86)\MICROSOFT VISUAL STUDIO\2019\COMMUNITY\VC\TOOLS\MSVC\14.28.29910\INCLUDE\XSTDDEF
C:\PROGRAM FILES (X86)\MICROSOFT VISUAL STUDIO\2019\COMMUNITY\VC\TOOLS\MSVC\14.28.29910\INCLUDE\CSTDDEF
C:\PROGRA~2\INTEL\ONEAPI\COMPILER\20212~1.0\WINDOWS\LIB\CLANG\12.0.0\INCLUDE\STDDEF.H
C:\PROGRA~2\INTEL\ONEAPI\COMPILER\20212~1.0\WINDOWS\LIB\CLANG\12.0.0\INCLUDE\__STDDEF_MAX_ALIGN_T.H
C:\PROGRAM FILES (X86)\MICROSOFT VISUAL STUDIO\2019\COMMUNITY\VC\TOOLS\MSVC\14.28.29910\INCLUDE\XTR1COMMON
C:\PROGRAM FILES (X86)\MICROSOFT VISUAL STUDIO\2019\COMMUNITY\VC\TOOLS\MSVC\14.28.29910\INCLUDE\CSTDLIB
C:\PROGRA~2\INTEL\ONEAPI\COMPILER\20212~1.0\WINDOWS\COMPILER\INCLUDE\MATH.H
C:\PROGRAM FILES (X86)\WINDOWS KITS\10\INCLUDE\10.0.19041.0\UCRT\MATH.H
C:\PROGRAM FILES (X86)\WINDOWS KITS\10\INCLUDE\10.0.19041.0\UCRT\CORECRT_MATH.H
C:\PROGRA~2\INTEL\ONEAPI\COMPILER\20212~1.0\WINDOWS\COMPILER\INCLUDE\MATH_COMMON_DEFINE.H
C:\PROGRA~2\INTEL\ONEAPI\COMPILER\20212~1.0\WINDOWS\COMPILER\INCLUDE\MATH_COMMON_UNDEFINE.H
C:\PROGRAM FILES (X86)\WINDOWS KITS\10\INCLUDE\10.0.19041.0\UCRT\STDLIB.H
C:\PROGRAM FILES (X86)\WINDOWS KITS\10\INCLUDE\10.0.19041.0\UCRT\CORECRT_MALLOC.H
C:\PROGRAM FILES (X86)\WINDOWS KITS\10\INCLUDE\10.0.19041.0\UCRT\CORECRT_SEARCH.H
C:\PROGRAM FILES (X86)\MICROSOFT VISUAL STUDIO\2019\COMMUNITY\VC\TOOLS\MSVC\14.28.29910\INCLUDE\INITIALIZER_LIST
C:\PROGRAM FILES (X86)\MICROSOFT VISUAL STUDIO\2019\COMMUNITY\VC\TOOLS\MSVC\14.28.29910\INCLUDE\XUTILITY
C:\PROGRAM FILES (X86)\MICROSOFT VISUAL STUDIO\2019\COMMUNITY\VC\TOOLS\MSVC\14.28.29910\INCLUDE\UTILITY
C:\PROGRAM FILES (X86)\MICROSOFT VISUAL STUDIO\2019\COMMUNITY\VC\TOOLS\MSVC\14.28.29910\INCLUDE\TYPE_TRAITS
C:\PROGRAM FILES (X86)\MICROSOFT VISUAL STUDIO\2019\COMMUNITY\VC\TOOLS\MSVC\14.28.29910\INCLUDE\MEMORY
C:\PROGRAM FILES (X86)\MICROSOFT VISUAL STUDIO\2019\COMMUNITY\VC\TOOLS\MSVC\14.28.29910\INCLUDE\EXCEPTION
C:\PROGRAM FILES (X86)\WINDOWS KITS\10\INCLUDE\10.0.19041.0\UCRT\MALLOC.H
C:\PROGRAM FILES (X86)\MICROSOFT VISUAL STUDIO\2019\COMMUNITY\VC\TOOLS\MSVC\14.28.29910\INCLUDE\VCRUNTIME_EXCEPTION.H
C:\PROGRAM FILES (X86)\MICROSOFT VISUAL STUDIO\2019\COMMUNITY\VC\TOOLS\MSVC\14.28.29910\INCLUDE\EH.H
C:\PROGRAM FILES (X86)\WINDOWS KITS\10\INCLUDE\10.0.19041.0\UCRT\CORECRT_TERMINATE.H
C:\PROGRAM FILES (X86)\MICROSOFT VISUAL STUDIO\2019\COMMUNITY\VC\TOOLS\MSVC\14.28.29910\INCLUDE\TYPEINFO
C:\PROGRAM FILES (X86)\MICROSOFT VISUAL STUDIO\2019\COMMUNITY\VC\TOOLS\MSVC\14.28.29910\INCLUDE\VCRUNTIME_TYPEINFO.H
C:\PROGRAM FILES (X86)\MICROSOFT VISUAL STUDIO\2019\COMMUNITY\VC\TOOLS\MSVC\14.28.29910\INCLUDE\XMEMORY
C:\PROGRAM FILES (X86)\MICROSOFT VISUAL STUDIO\2019\COMMUNITY\VC\TOOLS\MSVC\14.28.29910\INCLUDE\LIMITS
C:\PROGRAM FILES (X86)\MICROSOFT VISUAL STUDIO\2019\COMMUNITY\VC\TOOLS\MSVC\14.28.29910\INCLUDE\CFLOAT
C:\PROGRA~2\INTEL\ONEAPI\COMPILER\20212~1.0\WINDOWS\COMPILER\INCLUDE\FLOAT.H
C:\PROGRA~2\INTEL\ONEAPI\COMPILER\20212~1.0\WINDOWS\LIB\CLANG\12.0.0\INCLUDE\FLOAT.H
C:\PROGRAM FILES (X86)\WINDOWS KITS\10\INCLUDE\10.0.19041.0\UCRT\FLOAT.H
C:\PROGRAM FILES (X86)\MICROSOFT VISUAL STUDIO\2019\COMMUNITY\VC\TOOLS\MSVC\14.28.29910\INCLUDE\INTRIN0.H
C:\PROGRAM FILES (X86)\MICROSOFT VISUAL STUDIO\2019\COMMUNITY\VC\TOOLS\MSVC\14.28.29910\INCLUDE\ISA_AVAILABILITY.H
C:\PROGRAM FILES (X86)\MICROSOFT VISUAL STUDIO\2019\COMMUNITY\VC\TOOLS\MSVC\14.28.29910\INCLUDE\NEW
C:\PROGRAM FILES (X86)\MICROSOFT VISUAL STUDIO\2019\COMMUNITY\VC\TOOLS\MSVC\14.28.29910\INCLUDE\XATOMIC.H
C:\PROGRA~2\INTEL\ONEAPI\COMPILER\20212~1.0\WINDOWS\INCLUDE\SYCL\CL\SYCL\ACCESS\ACCESS.HPP
C:\PROGRA~2\INTEL\ONEAPI\COMPILER\20212~1.0\WINDOWS\INCLUDE\SYCL\CL\SYCL\DETAIL\COMMON.HPP
C:\PROGRA~2\INTEL\ONEAPI\COMPILER\20212~1.0\WINDOWS\INCLUDE\SYCL\CL\CL_EXT_INTEL.H
C:\PROGRA~2\INTEL\ONEAPI\COMPILER\20212~1.0\WINDOWS\INCLUDE\SYCL\CL\CL.H
C:\PROGRA~2\INTEL\ONEAPI\COMPILER\20212~1.0\WINDOWS\INCLUDE\SYCL\CL\CL_VERSION.H
C:\PROGRA~2\INTEL\ONEAPI\COMPILER\20212~1.0\WINDOWS\INCLUDE\SYCL\CL\CL_PLATFORM.H
C:\PROGRA~2\INTEL\ONEAPI\COMPILER\20212~1.0\WINDOWS\LIB\CLANG\12.0.0\INCLUDE\XMMINTRIN.H
C:\PROGRA~2\INTEL\ONEAPI\COMPILER\20212~1.0\WINDOWS\LIB\CLANG\12.0.0\INCLUDE\MMINTRIN.H
C:\PROGRA~2\INTEL\ONEAPI\COMPILER\20212~1.0\WINDOWS\LIB\CLANG\12.0.0\INCLUDE\MM_MALLOC.H
C:\PROGRA~2\INTEL\ONEAPI\COMPILER\20212~1.0\WINDOWS\LIB\CLANG\12.0.0\INCLUDE\EMMINTRIN.H
C:\PROGRA~2\INTEL\ONEAPI\COMPILER\20212~1.0\WINDOWS\INCLUDE\SYCL\CL\SYCL\DETAIL\CL.H
C:\PROGRA~2\INTEL\ONEAPI\COMPILER\20212~1.0\WINDOWS\INCLUDE\SYCL\CL\CL_EXT.H
C:\PROGRAM FILES (X86)\MICROSOFT VISUAL STUDIO\2019\COMMUNITY\VC\TOOLS\MSVC\14.28.29910\INCLUDE\STRING
C:\PROGRAM FILES (X86)\MICROSOFT VISUAL STUDIO\2019\COMMUNITY\VC\TOOLS\MSVC\14.28.29910\INCLUDE\XSTRING
C:\PROGRAM FILES (X86)\MICROSOFT VISUAL STUDIO\2019\COMMUNITY\VC\TOOLS\MSVC\14.28.29910\INCLUDE\XPOLYMORPHIC_ALLOCATOR.H
C:\PROGRAM FILES (X86)\MICROSOFT VISUAL STUDIO\2019\COMMUNITY\VC\TOOLS\MSVC\14.28.29910\INCLUDE\TUPLE
C:\PROGRAM FILES (X86)\MICROSOFT VISUAL STUDIO\2019\COMMUNITY\VC\TOOLS\MSVC\14.28.29910\INCLUDE\CCTYPE
C:\PROGRAM FILES (X86)\WINDOWS KITS\10\INCLUDE\10.0.19041.0\UCRT\CTYPE.H
C:\PROGRAM FILES (X86)\MICROSOFT VISUAL STUDIO\2019\COMMUNITY\VC\TOOLS\MSVC\14.28.29910\INCLUDE\IOSTREAM
C:\PROGRAM FILES (X86)\MICROSOFT VISUAL STUDIO\2019\COMMUNITY\VC\TOOLS\MSVC\14.28.29910\INCLUDE\ISTREAM
C:\PROGRAM FILES (X86)\MICROSOFT VISUAL STUDIO\2019\COMMUNITY\VC\TOOLS\MSVC\14.28.29910\INCLUDE\OSTREAM
C:\PROGRAM FILES (X86)\MICROSOFT VISUAL STUDIO\2019\COMMUNITY\VC\TOOLS\MSVC\14.28.29910\INCLUDE\IOS
C:\PROGRAM FILES (X86)\MICROSOFT VISUAL STUDIO\2019\COMMUNITY\VC\TOOLS\MSVC\14.28.29910\INCLUDE\XLOCNUM
C:\PROGRAM FILES (X86)\MICROSOFT VISUAL STUDIO\2019\COMMUNITY\VC\TOOLS\MSVC\14.28.29910\INCLUDE\CMATH
C:\PROGRAM FILES (X86)\MICROSOFT VISUAL STUDIO\2019\COMMUNITY\VC\TOOLS\MSVC\14.28.29910\INCLUDE\STREAMBUF
C:\PROGRAM FILES (X86)\MICROSOFT VISUAL STUDIO\2019\COMMUNITY\VC\TOOLS\MSVC\14.28.29910\INCLUDE\XIOSBASE
C:\PROGRAM FILES (X86)\WINDOWS KITS\10\INCLUDE\10.0.19041.0\UCRT\SHARE.H
C:\PROGRAM FILES (X86)\MICROSOFT VISUAL STUDIO\2019\COMMUNITY\VC\TOOLS\MSVC\14.28.29910\INCLUDE\SYSTEM_ERROR
C:\PROGRAM FILES (X86)\MICROSOFT VISUAL STUDIO\2019\COMMUNITY\VC\TOOLS\MSVC\14.28.29910\INCLUDE\__MSVC_SYSTEM_ERROR_ABI.HPP
C:\PROGRAM FILES (X86)\MICROSOFT VISUAL STUDIO\2019\COMMUNITY\VC\TOOLS\MSVC\14.28.29910\INCLUDE\CERRNO
C:\PROGRAM FILES (X86)\MICROSOFT VISUAL STUDIO\2019\COMMUNITY\VC\TOOLS\MSVC\14.28.29910\INCLUDE\STDEXCEPT
C:\PROGRAM FILES (X86)\MICROSOFT VISUAL STUDIO\2019\COMMUNITY\VC\TOOLS\MSVC\14.28.29910\INCLUDE\XCALL_ONCE.H
C:\PROGRAM FILES (X86)\MICROSOFT VISUAL STUDIO\2019\COMMUNITY\VC\TOOLS\MSVC\14.28.29910\INCLUDE\XERRC.H
C:\PROGRAM FILES (X86)\MICROSOFT VISUAL STUDIO\2019\COMMUNITY\VC\TOOLS\MSVC\14.28.29910\INCLUDE\ATOMIC
C:\PROGRAM FILES (X86)\MICROSOFT VISUAL STUDIO\2019\COMMUNITY\VC\TOOLS\MSVC\14.28.29910\INCLUDE\XTHREADS.H
C:\PROGRAM FILES (X86)\MICROSOFT VISUAL STUDIO\2019\COMMUNITY\VC\TOOLS\MSVC\14.28.29910\INCLUDE\XTIMEC.H
C:\PROGRAM FILES (X86)\MICROSOFT VISUAL STUDIO\2019\COMMUNITY\VC\TOOLS\MSVC\14.28.29910\INCLUDE\CTIME
C:\PROGRAM FILES (X86)\WINDOWS KITS\10\INCLUDE\10.0.19041.0\UCRT\TIME.H
C:\PROGRAM FILES (X86)\MICROSOFT VISUAL STUDIO\2019\COMMUNITY\VC\TOOLS\MSVC\14.28.29910\INCLUDE\XLOCALE
C:\PROGRAM FILES (X86)\MICROSOFT VISUAL STUDIO\2019\COMMUNITY\VC\TOOLS\MSVC\14.28.29910\INCLUDE\XFACET
C:\PROGRAM FILES (X86)\MICROSOFT VISUAL STUDIO\2019\COMMUNITY\VC\TOOLS\MSVC\14.28.29910\INCLUDE\XLOCINFO
C:\PROGRAM FILES (X86)\MICROSOFT VISUAL STUDIO\2019\COMMUNITY\VC\TOOLS\MSVC\14.28.29910\INCLUDE\XLOCINFO.H
C:\PROGRAM FILES (X86)\MICROSOFT VISUAL STUDIO\2019\COMMUNITY\VC\TOOLS\MSVC\14.28.29910\INCLUDE\CLOCALE
C:\PROGRAM FILES (X86)\WINDOWS KITS\10\INCLUDE\10.0.19041.0\UCRT\LOCALE.H
C:\PROGRA~2\INTEL\ONEAPI\COMPILER\20212~1.0\WINDOWS\INCLUDE\SYCL\CL\SYCL\EXCEPTION.HPP
C:\PROGRA~2\INTEL\ONEAPI\COMPILER\20212~1.0\WINDOWS\INCLUDE\SYCL\CL\SYCL\DETAIL\PI.H
C:\PROGRA~2\INTEL\ONEAPI\COMPILER\20212~1.0\WINDOWS\INCLUDE\SYCL\CL\SYCL\DETAIL\PI.DEF
C:\PROGRA~2\INTEL\ONEAPI\COMPILER\20212~1.0\WINDOWS\INCLUDE\SYCL\CL\SYCL\STL.HPP
C:\PROGRAM FILES (X86)\MICROSOFT VISUAL STUDIO\2019\COMMUNITY\VC\TOOLS\MSVC\14.28.29910\INCLUDE\FUNCTIONAL
C:\PROGRAM FILES (X86)\MICROSOFT VISUAL STUDIO\2019\COMMUNITY\VC\TOOLS\MSVC\14.28.29910\INCLUDE\UNORDERED_MAP
C:\PROGRAM FILES (X86)\MICROSOFT VISUAL STUDIO\2019\COMMUNITY\VC\TOOLS\MSVC\14.28.29910\INCLUDE\XHASH
C:\PROGRAM FILES (X86)\MICROSOFT VISUAL STUDIO\2019\COMMUNITY\VC\TOOLS\MSVC\14.28.29910\INCLUDE\LIST
C:\PROGRAM FILES (X86)\MICROSOFT VISUAL STUDIO\2019\COMMUNITY\VC\TOOLS\MSVC\14.28.29910\INCLUDE\VECTOR
C:\PROGRAM FILES (X86)\MICROSOFT VISUAL STUDIO\2019\COMMUNITY\VC\TOOLS\MSVC\14.28.29910\INCLUDE\XBIT_OPS.H
C:\PROGRAM FILES (X86)\MICROSOFT VISUAL STUDIO\2019\COMMUNITY\VC\TOOLS\MSVC\14.28.29910\INCLUDE\XNODE_HANDLE.H
C:\PROGRAM FILES (X86)\MICROSOFT VISUAL STUDIO\2019\COMMUNITY\VC\TOOLS\MSVC\14.28.29910\INCLUDE\MUTEX
C:\PROGRAM FILES (X86)\MICROSOFT VISUAL STUDIO\2019\COMMUNITY\VC\TOOLS\MSVC\14.28.29910\INCLUDE\CHRONO
C:\PROGRAM FILES (X86)\MICROSOFT VISUAL STUDIO\2019\COMMUNITY\VC\TOOLS\MSVC\14.28.29910\INCLUDE\RATIO
C:\PROGRAM FILES (X86)\MICROSOFT VISUAL STUDIO\2019\COMMUNITY\VC\TOOLS\MSVC\14.28.29910\INCLUDE\SSTREAM
C:\PROGRAM FILES (X86)\MICROSOFT VISUAL STUDIO\2019\COMMUNITY\VC\TOOLS\MSVC\14.28.29910\INCLUDE\THREAD
C:\PROGRAM FILES (X86)\WINDOWS KITS\10\INCLUDE\10.0.19041.0\UCRT\PROCESS.H
C:\PROGRAM FILES (X86)\WINDOWS KITS\10\INCLUDE\10.0.19041.0\UCRT\CORECRT_STARTUP.H
C:\PROGRAM FILES (X86)\MICROSOFT VISUAL STUDIO\2019\COMMUNITY\VC\TOOLS\MSVC\14.28.29910\INCLUDE\VCRUNTIME_STARTUP.H
C:\PROGRA~2\INTEL\ONEAPI\COMPILER\20212~1.0\WINDOWS\INCLUDE\SYCL\CL\SYCL\DETAIL\HELPERS.HPP
C:\PROGRA~2\INTEL\ONEAPI\COMPILER\20212~1.0\WINDOWS\INCLUDE\SYCL\CL\__SPIRV\SPIRV_VARS.HPP
C:\PROGRA~2\INTEL\ONEAPI\COMPILER\20212~1.0\WINDOWS\INCLUDE\SYCL\CL\SYCL\DETAIL\PI.HPP
C:\PROGRA~2\INTEL\ONEAPI\COMPILER\20212~1.0\WINDOWS\INCLUDE\SYCL\CL\SYCL\BACKEND_TYPES.HPP
C:\PROGRAM FILES (X86)\MICROSOFT VISUAL STUDIO\2019\COMMUNITY\VC\TOOLS\MSVC\14.28.29910\INCLUDE\FSTREAM
C:\PROGRA~2\INTEL\ONEAPI\COMPILER\20212~1.0\WINDOWS\INCLUDE\SYCL\CL\SYCL\DETAIL\OS_UTIL.HPP
C:\PROGRAM FILES (X86)\MICROSOFT VISUAL STUDIO\2019\COMMUNITY\VC\TOOLS\MSVC\14.28.29910\INCLUDE\CASSERT
C:\PROGRAM FILES (X86)\WINDOWS KITS\10\INCLUDE\10.0.19041.0\UCRT\ASSERT.H
C:\PROGRA~2\INTEL\ONEAPI\COMPILER\20212~1.0\WINDOWS\INCLUDE\SYCL\CL\SYCL\DETAIL\TYPE_TRAITS.HPP
C:\PROGRA~2\INTEL\ONEAPI\COMPILER\20212~1.0\WINDOWS\INCLUDE\SYCL\CL\SYCL\DETAIL\GENERIC_TYPE_LISTS.HPP
C:\PROGRA~2\INTEL\ONEAPI\COMPILER\20212~1.0\WINDOWS\INCLUDE\SYCL\CL\SYCL\DETAIL\TYPE_LIST.HPP
C:\PROGRA~2\INTEL\ONEAPI\COMPILER\20212~1.0\WINDOWS\INCLUDE\SYCL\CL\SYCL\ONEAPI\ATOMIC_REF.HPP
C:\PROGRA~2\INTEL\ONEAPI\COMPILER\20212~1.0\WINDOWS\INCLUDE\SYCL\CL\SYCL\ATOMIC.HPP
C:\PROGRA~2\INTEL\ONEAPI\COMPILER\20212~1.0\WINDOWS\INCLUDE\SYCL\CL\SYCL\DETAIL\SPIRV.HPP
C:\PROGRA~2\INTEL\ONEAPI\COMPILER\20212~1.0\WINDOWS\INCLUDE\SYCL\CL\SYCL\DETAIL\GENERIC_TYPE_TRAITS.HPP
C:\PROGRA~2\INTEL\ONEAPI\COMPILER\20212~1.0\WINDOWS\INCLUDE\SYCL\CL\SYCL\ALIASES.HPP
C:\PROGRA~2\INTEL\ONEAPI\COMPILER\20212~1.0\WINDOWS\INCLUDE\SYCL\CL\SYCL\HALF_TYPE.HPP
C:\PROGRAM FILES (X86)\MICROSOFT VISUAL STUDIO\2019\COMMUNITY\VC\TOOLS\MSVC\14.28.29910\INCLUDE\ARRAY
C:\PROGRA~2\INTEL\ONEAPI\COMPILER\20212~1.0\WINDOWS\INCLUDE\SYCL\CL\SYCL\ID.HPP
C:\PROGRA~2\INTEL\ONEAPI\COMPILER\20212~1.0\WINDOWS\INCLUDE\SYCL\CL\SYCL\DETAIL\ARRAY.HPP
C:\PROGRA~2\INTEL\ONEAPI\COMPILER\20212~1.0\WINDOWS\INCLUDE\SYCL\CL\SYCL\RANGE.HPP
C:\PROGRA~2\INTEL\ONEAPI\COMPILER\20212~1.0\WINDOWS\INCLUDE\SYCL\CL\SYCL\ACCESSOR.HPP
C:\PROGRA~2\INTEL\ONEAPI\COMPILER\20212~1.0\WINDOWS\INCLUDE\SYCL\CL\SYCL\ONEAPI\ACCESSOR_PROPERTY_LIST.HPP
C:\PROGRA~2\INTEL\ONEAPI\COMPILER\20212~1.0\WINDOWS\INCLUDE\SYCL\CL\SYCL\DETAIL\PROPERTY_LIST_BASE.HPP
C:\PROGRA~2\INTEL\ONEAPI\COMPILER\20212~1.0\WINDOWS\INCLUDE\SYCL\CL\SYCL\DETAIL\PROPERTY_HELPER.HPP
C:\PROGRAM FILES (X86)\MICROSOFT VISUAL STUDIO\2019\COMMUNITY\VC\TOOLS\MSVC\14.28.29910\INCLUDE\BITSET
C:\PROGRA~2\INTEL\ONEAPI\COMPILER\20212~1.0\WINDOWS\INCLUDE\SYCL\CL\SYCL\PROPERTY_LIST.HPP
C:\PROGRA~2\INTEL\ONEAPI\COMPILER\20212~1.0\WINDOWS\INCLUDE\SYCL\CL\SYCL\BUFFER.HPP
C:\PROGRA~2\INTEL\ONEAPI\COMPILER\20212~1.0\WINDOWS\INCLUDE\SYCL\CL\SYCL\DETAIL\BUFFER_IMPL.HPP
C:\PROGRA~2\INTEL\ONEAPI\COMPILER\20212~1.0\WINDOWS\INCLUDE\SYCL\CL\SYCL\CONTEXT.HPP
C:\PROGRA~2\INTEL\ONEAPI\COMPILER\20212~1.0\WINDOWS\INCLUDE\SYCL\CL\SYCL\EXCEPTION_LIST.HPP
C:\PROGRA~2\INTEL\ONEAPI\COMPILER\20212~1.0\WINDOWS\INCLUDE\SYCL\CL\SYCL\INFO\INFO_DESC.HPP
C:\PROGRA~2\INTEL\ONEAPI\COMPILER\20212~1.0\WINDOWS\INCLUDE\SYCL\CL\SYCL\INFO\DEVICE_TRAITS.DEF
C:\PROGRA~2\INTEL\ONEAPI\COMPILER\20212~1.0\WINDOWS\INCLUDE\SYCL\CL\SYCL\INFO\CONTEXT_TRAITS.DEF
C:\PROGRA~2\INTEL\ONEAPI\COMPILER\20212~1.0\WINDOWS\INCLUDE\SYCL\CL\SYCL\INFO\EVENT_TRAITS.DEF
C:\PROGRA~2\INTEL\ONEAPI\COMPILER\20212~1.0\WINDOWS\INCLUDE\SYCL\CL\SYCL\INFO\EVENT_PROFILING_TRAITS.DEF
C:\PROGRA~2\INTEL\ONEAPI\COMPILER\20212~1.0\WINDOWS\INCLUDE\SYCL\CL\SYCL\INFO\KERNEL_DEVICE_SPECIFIC_TRAITS.DEF
C:\PROGRA~2\INTEL\ONEAPI\COMPILER\20212~1.0\WINDOWS\INCLUDE\SYCL\CL\SYCL\INFO\KERNEL_SUB_GROUP_TRAITS.DEF
C:\PROGRA~2\INTEL\ONEAPI\COMPILER\20212~1.0\WINDOWS\INCLUDE\SYCL\CL\SYCL\INFO\KERNEL_TRAITS.DEF
C:\PROGRA~2\INTEL\ONEAPI\COMPILER\20212~1.0\WINDOWS\INCLUDE\SYCL\CL\SYCL\INFO\KERNEL_WORK_GROUP_TRAITS.DEF
C:\PROGRA~2\INTEL\ONEAPI\COMPILER\20212~1.0\WINDOWS\INCLUDE\SYCL\CL\SYCL\INFO\PLATFORM_TRAITS.DEF
C:\PROGRA~2\INTEL\ONEAPI\COMPILER\20212~1.0\WINDOWS\INCLUDE\SYCL\CL\SYCL\INFO\PROGRAM_TRAITS.DEF
C:\PROGRA~2\INTEL\ONEAPI\COMPILER\20212~1.0\WINDOWS\INCLUDE\SYCL\CL\SYCL\INFO\QUEUE_TRAITS.DEF
C:\PROGRA~2\INTEL\ONEAPI\COMPILER\20212~1.0\WINDOWS\INCLUDE\SYCL\CL\SYCL\DETAIL\SYCL_MEM_OBJ_T.HPP
C:\PROGRA~2\INTEL\ONEAPI\COMPILER\20212~1.0\WINDOWS\INCLUDE\SYCL\CL\SYCL\DETAIL\SYCL_MEM_OBJ_ALLOCATOR.HPP
C:\PROGRA~2\INTEL\ONEAPI\COMPILER\20212~1.0\WINDOWS\INCLUDE\SYCL\CL\SYCL\DETAIL\SYCL_MEM_OBJ_I.HPP
C:\PROGRA~2\INTEL\ONEAPI\COMPILER\20212~1.0\WINDOWS\INCLUDE\SYCL\CL\SYCL\EVENT.HPP
C:\PROGRA~2\INTEL\ONEAPI\COMPILER\20212~1.0\WINDOWS\INCLUDE\SYCL\CL\SYCL\PROPERTIES\BUFFER_PROPERTIES.HPP
C:\PROGRA~2\INTEL\ONEAPI\COMPILER\20212~1.0\WINDOWS\INCLUDE\SYCL\CL\SYCL\PROPERTIES\IMAGE_PROPERTIES.HPP
C:\PROGRA~2\INTEL\ONEAPI\COMPILER\20212~1.0\WINDOWS\INCLUDE\SYCL\CL\SYCL\TYPES.HPP
C:\PROGRA~2\INTEL\ONEAPI\COMPILER\20212~1.0\WINDOWS\INCLUDE\SYCL\CL\SYCL\MULTI_PTR.HPP
C:\PROGRAM FILES (X86)\MICROSOFT VISUAL STUDIO\2019\COMMUNITY\VC\TOOLS\MSVC\14.28.29910\INCLUDE\CFENV
C:\PROGRA~2\INTEL\ONEAPI\COMPILER\20212~1.0\WINDOWS\COMPILER\INCLUDE\FENV.H
C:\PROGRA~2\INTEL\ONEAPI\COMPILER\20212~1.0\WINDOWS\INCLUDE\SYCL\CL\SYCL\SWIZZLES.DEF
C:\PROGRA~2\INTEL\ONEAPI\COMPILER\20212~1.0\WINDOWS\INCLUDE\SYCL\CL\SYCL\DETAIL\ACCESSOR_IMPL.HPP
C:\PROGRA~2\INTEL\ONEAPI\COMPILER\20212~1.0\WINDOWS\INCLUDE\SYCL\CL\SYCL\DETAIL\HANDLER_PROXY.HPP
C:\PROGRA~2\INTEL\ONEAPI\COMPILER\20212~1.0\WINDOWS\INCLUDE\SYCL\CL\SYCL\DETAIL\IMAGE_ACCESSOR_UTIL.HPP
C:\PROGRA~2\INTEL\ONEAPI\COMPILER\20212~1.0\WINDOWS\INCLUDE\SYCL\CL\SYCL\BUILTINS.HPP
C:\PROGRA~2\INTEL\ONEAPI\COMPILER\20212~1.0\WINDOWS\INCLUDE\SYCL\CL\SYCL\DETAIL\BOOLEAN.HPP
C:\PROGRA~2\INTEL\ONEAPI\COMPILER\20212~1.0\WINDOWS\INCLUDE\SYCL\CL\SYCL\DETAIL\BUILTINS.HPP
C:\PROGRA~2\INTEL\ONEAPI\COMPILER\20212~1.0\WINDOWS\INCLUDE\SYCL\CL\SYCL\IMAGE.HPP
C:\PROGRA~2\INTEL\ONEAPI\COMPILER\20212~1.0\WINDOWS\INCLUDE\SYCL\CL\SYCL\DETAIL\IMAGE_IMPL.HPP
C:\PROGRA~2\INTEL\ONEAPI\COMPILER\20212~1.0\WINDOWS\INCLUDE\SYCL\CL\SYCL\DETAIL\ALIGNED_ALLOCATOR.HPP
C:\PROGRA~2\INTEL\ONEAPI\COMPILER\20212~1.0\WINDOWS\INCLUDE\SYCL\CL\SYCL\DEVICE.HPP
C:\PROGRA~2\INTEL\ONEAPI\COMPILER\20212~1.0\WINDOWS\INCLUDE\SYCL\CL\SYCL\ASPECTS.HPP
C:\PROGRA~2\INTEL\ONEAPI\COMPILER\20212~1.0\WINDOWS\INCLUDE\SYCL\CL\SYCL\PLATFORM.HPP
C:\PROGRA~2\INTEL\ONEAPI\COMPILER\20212~1.0\WINDOWS\INCLUDE\SYCL\CL\SYCL\SAMPLER.HPP
C:\PROGRA~2\INTEL\ONEAPI\COMPILER\20212~1.0\WINDOWS\INCLUDE\SYCL\CL\SYCL\DETAIL\IMAGE_OCL_TYPES.HPP
C:\PROGRA~2\INTEL\ONEAPI\COMPILER\20212~1.0\WINDOWS\INCLUDE\SYCL\CL\SYCL\POINTERS.HPP
C:\PROGRA~2\INTEL\ONEAPI\COMPILER\20212~1.0\WINDOWS\INCLUDE\SYCL\CL\SYCL\PROPERTIES\ACCESSOR_PROPERTIES.HPP
C:\PROGRA~2\INTEL\ONEAPI\COMPILER\20212~1.0\WINDOWS\INCLUDE\SYCL\CL\SYCL\PROPERTY_LIST_CONVERSION.HPP
C:\PROGRA~2\INTEL\ONEAPI\COMPILER\20212~1.0\WINDOWS\INCLUDE\SYCL\CL\SYCL\ONEAPI\ATOMIC_FENCE.HPP
C:\PROGRA~2\INTEL\ONEAPI\COMPILER\20212~1.0\WINDOWS\INCLUDE\SYCL\CL\SYCL\ONEAPI\EXPERIMENTAL\BUILTINS.HPP
C:\PROGRA~2\INTEL\ONEAPI\COMPILER\20212~1.0\WINDOWS\INCLUDE\SYCL\CL\SYCL\ONEAPI\FILTER_SELECTOR.HPP
C:\PROGRA~2\INTEL\ONEAPI\COMPILER\20212~1.0\WINDOWS\INCLUDE\SYCL\CL\SYCL\DEVICE_SELECTOR.HPP
C:\PROGRA~2\INTEL\ONEAPI\COMPILER\20212~1.0\WINDOWS\INCLUDE\SYCL\CL\SYCL\ONEAPI\FUNCTION_POINTER.HPP
C:\PROGRA~2\INTEL\ONEAPI\COMPILER\20212~1.0\WINDOWS\INCLUDE\SYCL\CL\SYCL\PROGRAM.HPP
C:\PROGRA~2\INTEL\ONEAPI\COMPILER\20212~1.0\WINDOWS\INCLUDE\SYCL\CL\SYCL\ONEAPI\EXPERIMENTAL\SPEC_CONSTANT.HPP
C:\PROGRA~2\INTEL\ONEAPI\COMPILER\20212~1.0\WINDOWS\INCLUDE\SYCL\CL\SYCL\DETAIL\SYCL_FE_INTRINS.HPP
C:\PROGRA~2\INTEL\ONEAPI\COMPILER\20212~1.0\WINDOWS\INCLUDE\SYCL\CL\SYCL\KERNEL.HPP
C:\PROGRA~2\INTEL\ONEAPI\COMPILER\20212~1.0\WINDOWS\INCLUDE\SYCL\CL\SYCL\ONEAPI\GROUP_ALGORITHM.HPP
C:\PROGRA~2\INTEL\ONEAPI\COMPILER\20212~1.0\WINDOWS\INCLUDE\SYCL\CL\SYCL\ONEAPI\FUNCTIONAL.HPP
C:\PROGRA~2\INTEL\ONEAPI\COMPILER\20212~1.0\WINDOWS\INCLUDE\SYCL\CL\SYCL\ONEAPI\SUB_GROUP.HPP
C:\PROGRA~2\INTEL\ONEAPI\COMPILER\20212~1.0\WINDOWS\INCLUDE\SYCL\CL\SYCL\GROUP.HPP
C:\PROGRA~2\INTEL\ONEAPI\COMPILER\20212~1.0\WINDOWS\INCLUDE\SYCL\CL\SYCL\DETAIL\HOST_DEVICE_INTEL\BACKEND.HPP
C:\PROGRA~2\INTEL\ONEAPI\COMPILER\20212~1.0\WINDOWS\INCLUDE\SYCL\CL\SYCL\DEVICE_EVENT.HPP
C:\PROGRA~2\INTEL\ONEAPI\COMPILER\20212~1.0\WINDOWS\INCLUDE\SYCL\CL\SYCL\H_ITEM.HPP
C:\PROGRA~2\INTEL\ONEAPI\COMPILER\20212~1.0\WINDOWS\INCLUDE\SYCL\CL\SYCL\ITEM.HPP
C:\PROGRA~2\INTEL\ONEAPI\COMPILER\20212~1.0\WINDOWS\INCLUDE\SYCL\CL\SYCL\DETAIL\ITEM_BASE.HPP
C:\PROGRA~2\INTEL\ONEAPI\COMPILER\20212~1.0\WINDOWS\INCLUDE\SYCL\CL\SYCL\ND_ITEM.HPP
C:\PROGRA~2\INTEL\ONEAPI\COMPILER\20212~1.0\WINDOWS\INCLUDE\SYCL\CL\SYCL\ND_RANGE.HPP
C:\PROGRA~2\INTEL\ONEAPI\COMPILER\20212~1.0\WINDOWS\INCLUDE\SYCL\CL\SYCL\ONEAPI\REDUCTION.HPP
C:\PROGRA~2\INTEL\ONEAPI\COMPILER\20212~1.0\WINDOWS\INCLUDE\SYCL\CL\SYCL\HANDLER.HPP
C:\PROGRA~2\INTEL\ONEAPI\COMPILER\20212~1.0\WINDOWS\INCLUDE\SYCL\CL\SYCL\DETAIL\CG.HPP
C:\PROGRA~2\INTEL\ONEAPI\COMPILER\20212~1.0\WINDOWS\INCLUDE\SYCL\CL\SYCL\DETAIL\CG_TYPES.HPP
C:\PROGRA~2\INTEL\ONEAPI\COMPILER\20212~1.0\WINDOWS\INCLUDE\SYCL\CL\SYCL\DETAIL\HOST_PROFILING_INFO.HPP
C:\PROGRA~2\INTEL\ONEAPI\COMPILER\20212~1.0\WINDOWS\INCLUDE\SYCL\CL\SYCL\INTEROP_HANDLE.HPP
C:\PROGRA~2\INTEL\ONEAPI\COMPILER\20212~1.0\WINDOWS\INCLUDE\SYCL\CL\SYCL\INTEROP_HANDLER.HPP
C:\PROGRA~2\INTEL\ONEAPI\COMPILER\20212~1.0\WINDOWS\INCLUDE\SYCL\CL\SYCL\BACKEND.HPP
C:\PROGRA~2\INTEL\ONEAPI\COMPILER\20212~1.0\WINDOWS\INCLUDE\SYCL\CL\SYCL\FEATURE_TEST.HPP
C:\PROGRA~2\INTEL\ONEAPI\COMPILER\20212~1.0\WINDOWS\INCLUDE\SYCL\CL\SYCL\MARRAY.HPP
C:\PROGRA~2\INTEL\ONEAPI\COMPILER\20212~1.0\WINDOWS\INCLUDE\SYCL\CL\SYCL\PIPES.HPP
C:\PROGRA~2\INTEL\ONEAPI\COMPILER\20212~1.0\WINDOWS\INCLUDE\SYCL\CL\SYCL\INTEL\PIPES.HPP
C:\PROGRA~2\INTEL\ONEAPI\COMPILER\20212~1.0\WINDOWS\INCLUDE\SYCL\CL\SYCL\PROPERTIES\ALL_PROPERTIES.HPP
C:\PROGRA~2\INTEL\ONEAPI\COMPILER\20212~1.0\WINDOWS\INCLUDE\SYCL\CL\SYCL\PROPERTIES\CONTEXT_PROPERTIES.HPP
C:\PROGRA~2\INTEL\ONEAPI\COMPILER\20212~1.0\WINDOWS\INCLUDE\SYCL\CL\SYCL\PROPERTIES\QUEUE_PROPERTIES.HPP
C:\PROGRA~2\INTEL\ONEAPI\COMPILER\20212~1.0\WINDOWS\INCLUDE\SYCL\CL\SYCL\QUEUE.HPP
C:\PROGRA~2\INTEL\ONEAPI\COMPILER\20212~1.0\WINDOWS\INCLUDE\SYCL\CL\SYCL\STREAM.HPP
C:\PROGRA~2\INTEL\ONEAPI\COMPILER\20212~1.0\WINDOWS\INCLUDE\SYCL\CL\SYCL\USM.HPP
C:\PROGRA~2\INTEL\ONEAPI\COMPILER\20212~1.0\WINDOWS\INCLUDE\SYCL\CL\SYCL\USM\USM_ALLOCATOR.HPP
C:\PROGRA~2\INTEL\ONEAPI\COMPILER\20212~1.0\WINDOWS\INCLUDE\SYCL\CL\SYCL\USM\USM_ENUMS.HPP
C:\PROGRA~2\INTEL\ONEAPI\COMPILER\20212~1.0\WINDOWS\INCLUDE\SYCL\CL\SYCL\VERSION.HPP
C:\PROGRAM FILES (X86)\MICROSOFT VISUAL STUDIO\2019\COMMUNITY\VC\TOOLS\MSVC\14.28.29910\BIN\HOSTX64\X64\CL.EXE
