#Command: llvm-objcopy "--add-section=__CLANG_OFFLOAD_BUNDLE__sycl-spir64-unknown-unknown-sycldevice=C:\Users\alexa\AppData\Local\Temp\DPCPPConsoleApplication1-2ed80d.bc" "--add-section=__CLANG_OFFLOAD_BUNDLE_SIZE__sycl-spir64-unknown-unknown-sycldevice=C:\Users\alexa\AppData\Local\Temp\clang-offload-bundler-10342d.tmp" "--add-section=__CLANG_OFFLOAD_BUNDLE__host-x86_64-pc-windows-msvc=C:\Users\alexa\AppData\Local\Temp\clang-offload-bundler-df04b8.tmp" "--add-section=__CLANG_OFFLOAD_BUNDLE_SIZE__host-x86_64-pc-windows-msvc=C:\Users\alexa\AppData\Local\Temp\clang-offload-bundler-7154a3.tmp" "--add-section=.tgtsym=C:\Users\alexa\AppData\Local\Temp\clang-offload-bundler-710eb6.tmp" "C:\Users\alexa\AppData\Local\Temp\DPCPPConsoleApplication1-b45569.obj" "C:\Users\alexa\AppData\Local\Temp\clang-offload-bundler-2f4629.tmp" 
^C:\USERS\ALEXA\SOURCE\REPOS\DPCPPCONSOLEAPPLICATION1\DPCPPCONSOLEAPPLICATION1\DPCPPCONSOLEAPPLICATION1.CPP
\\?\C:\USERS\ALEXA\APPDATA\LOCAL\TEMP\CLANG-OFFLOAD-BUNDLER-2F4629.TMP.TMP47B9AE8
